UC data wrangling
…
## # A tibble: 6 x 6
##   country iso2  iso3   year key           cases
##   <chr>   <chr> <chr> <int> <chr>         <int>
## 1 India   IN    IND    2007 new_sn_m3544 250051
## 2 India   IN    IND    2007 new_sn_f3544 148811
## 3 China   CN    CHN    2013 newrel_m65   124476
## 4 China   CN    CHN    2013 newrel_m5564 112558
## 5 India   IN    IND    2007 new_ep_m3544 105825
## 6 India   IN    IND    2007 new_ep_f3544 101015

count(who_gather,key)

## # A tibble: 56 x 2
##    key              n
##    <chr>        <int>
##  1 new_ep_f014   1032
##  2 new_ep_f1524  1021
##  3 new_ep_f2534  1021
##  4 new_ep_f3544  1021
##  5 new_ep_f4554  1017
##  6 new_ep_f5564  1017
##  7 new_ep_f65    1014
##  8 new_ep_m014   1038
##  9 new_ep_m1524  1026
## 10 new_ep_m2534  1020
## # ... with 46 more rows
…
